{
  "name": "nx-deploy",
  "$schema": "../../node_modules/nx/schemas/project-schema.json",
  "sourceRoot": "packages/nx-deploy/src",
  "projectType": "library",
  "targets": {
    "build": {
      "executor": "@nx/js:tsc",
      "outputs": ["{options.outputPath}"],
      "options": {
        "outputPath": "dist/packages/nx-deploy",
        "main": "packages/nx-deploy/src/index.ts",
        "tsConfig": "packages/nx-deploy/tsconfig.lib.json",
        "assets": [
          "packages/nx-deploy/*.md",
          {
            "input": "./packages/nx-deploy/src",
            "glob": "**/!(*.ts)",
            "output": "./src"
          },
          {
            "input": "./packages/nx-deploy/src",
            "glob": "**/*.d.ts",
            "output": "./src"
          },
          {
            "input": "./packages/nx-deploy",
            "glob": "generators.json",
            "output": "."
          },
          {
            "input": "./packages/nx-deploy",
            "glob": "executors.json",
            "output": "."
          }
        ]
      }
    },
    "lint": {
      "executor": "@nx/linter:eslint",
      "outputs": ["{options.outputFile}"],
      "options": {
        "lintFilePatterns": [
          "packages/nx-deploy/**/*.ts",
          "packages/nx-deploy/package.json",
          "packages/nx-deploy/generators.json",
          "packages/nx-deploy/executors.json"
        ]
      }
    },
    "test": {
      "executor": "@nx/jest:jest",
      "outputs": ["{workspaceRoot}/coverage/{projectRoot}"],
      "options": {
        "jestConfig": "packages/nx-deploy/jest.config.ts",
        "passWithNoTests": true
      },
      "configurations": {
        "ci": {
          "ci": true,
          "codeCoverage": true
        }
      }
    }
  },
  "tags": []
}
