{
  "$schema": "http://json-schema.org/schema",
  "executors": {
    "lint": {
      "implementation": "./src/executors/lint/executor",
      "schema": "./src/executors/lint/schema.json",
      "description": "lint executor"
    },
    "test": {
      "implementation": "./src/executors/test/executor",
      "schema": "./src/executors/test/schema.json",
      "description": "test executor"
    }
  }
}
