{
  "$schema": "http://json-schema.org/schema",
  "name": "nx-pyth",
  "version": "0.0.1",
  "generators": {
    "lib": {
      "factory": "./src/generators/nx-pyth/libgenerator",
      "schema": "./src/generators/nx-pyth/schema.json",
      "description": "nx-pyth generator"
    },
    "app": {
      "factory": "./src/generators/nx-pyth/appgenerator",
      "schema": "./src/generators/nx-pyth/schema.json",
      "description": "nx-pyth generator"
    }
  }
}